Shrikanth_Mahale_HW3_Part2
…
## Warning: All elements of `...` must be named.
## Did you want `data = c(type, role, source)`?

ad_binarized_corr_tbl <- ad_binarized_tbl %>%
  correlate(Clicked.on.Ad__1)

## Warning: The `x` argument of `as_tibble.matrix()` must have column names if `.name_repair` is omitted as of tibble 2.0.0.
## Using compatibility `.name_repair`.
## This warning is displayed once every 8 hours.
## Call `lifecycle::last_warnings()` to see where this warning was generated.

ad_binarized_corr_tbl

## # A tibble: 57 x 3
##    feature                  bin             correlation
##    <fct>                    <chr>                 <dbl>
##  1 Clicked.on.Ad            0                    -1    
##  2 Clicked.on.Ad            1                     1    
##  3 Daily.Internet.Usage     -Inf_138.83           0.577
##  4 Daily.Time.Spent.on.Site -Inf_51.36            0.568
##  5 Daily.Internet.Usage     218.7925_Inf         -0.508
##  6 Daily.Time.Spent.on.Site 78.5475_Inf          -0.480
##  7 Area.Income              -Inf_47031.8025       0.411
##  8 Daily.Internet.Usage     183.13_218.7925      -0.406
##  9 Daily.Time.Spent.on.Site 68.215_78.5475       -0.370
## 10 Daily.Internet.Usage     138.83_183.13         0.337
## # ... with 47 more rows
…
